[
  {
    "seq": 0,
    "uuid": "1cd6efd5-f1c0-4c93-b69b-5eb0085f0c01"
  },
  {
    "seq": 1,
    "uuid": "175c7f84-3907-43a2-bb4c-0849e27057a9"
  },
  {
    "seq": 2,
    "uuid": "cb12467a-ff29-47d0-8d27-a4087bbb374c"
  },
  {
    "seq": 3,
    "uuid": "b664fdd2-a875-4f19-8042-068da83358c7"
  },
  {
    "seq": 4,
    "uuid": "43e71961-d877-4c23-a6fd-43caba8f8775"
  },
  {
    "seq": 5,
    "uuid": "40e9091d-22a3-42b8-85e7-498d7bdf884f"
  },
  {
    "seq": 6,
    "uuid": "b4a0a998-bc4e-459a-a6eb-0fa2053ab9a3"
  },
  {
    "seq": 7,
    "uuid": "9a522371-4dc7-4c8e-8454-6037a4a0df43"
  },
  {
    "seq": 8,
    "uuid": "70f43564-f5e5-413b-aeac-fc6889517568"
  },
  {
    "seq": 9,
    "uuid": "84e713c6-edb3-4126-a542-0d1fdf45a7d6"
  },
  {
    "seq": 10,
    "uuid": "f853ac7e-c3b1-4f13-b07d-4725252eeb06"
  },
  {
    "seq": 11,
    "uuid": "bff977cb-59a3-4f8b-b3b6-9fd70bb010aa"
  },
  {
    "seq": 12,
    "uuid": "3e8916bf-97e0-4290-9067-a898ec36e104"
  },
  {
    "seq": 13,
    "uuid": "c87e7036-55ef-4636-8576-f5eefa30adbe"
  },
  {
    "seq": 14,
    "uuid": "5c022568-f362-4dff-bd85-bffc80161758"
  },
  {
    "seq": 15,
    "uuid": "3830687a-272b-443e-bba4-2d1f7be04875"
  },
  {
    "seq": 16,
    "uuid": "b43fad9b-5746-4e10-810a-67568e65638b"
  },
  {
    "seq": 17,
    "uuid": "308433ff-5d11-49fc-93ee-e3c1fb849d6b"
  },
  {
    "seq": 18,
    "uuid": "5d44ff0a-3abb-40ad-b76e-01531f592e2c"
  },
  {
    "seq": 19,
    "uuid": "3915bb5f-2429-4f52-aad0-cdbcef162d3d"
  },
  {
    "seq": 20,
    "uuid": "037a44f5-85b6-47ae-8d02-a4fc6c16d86a"
  },
  {
    "seq": 21,
    "uuid": "108f6c97-9b24-4d5f-b930-66672accc30e"
  },
  {
    "seq": 22,
    "uuid": "33f62452-64e9-4516-b3d4-ae68b520c465"
  },
  {
    "seq": 23,
    "uuid": "82d15c36-2207-4476-9c80-e35878dace88"
  },
  {
    "seq": 24,
    "uuid": "0c337a92-7ffa-4aa4-b696-c3f442dd3fa7"
  },
  {
    "seq": 25,
    "uuid": "9e037413-f4c7-43c8-91ac-b0eec7a43798"
  },
  {
    "seq": 26,
    "uuid": "1cbc53ec-0160-4cf5-b47b-05f8a1ae6c1e"
  },
  {
    "seq": 27,
    "uuid": "a189e4d8-6c8c-463a-8341-217d14128fea"
  },
  {
    "seq": 28,
    "uuid": "06a26a9b-a93b-46fd-b001-cb1ec67ee7c4"
  },
  {
    "seq": 29,
    "uuid": "f82632d5-a5fc-4b36-9177-a535703504d4"
  },
  {
    "seq": 30,
    "uuid": "d24c887e-6f76-47ec-8f4f-c6315bfb7c36"
  },
  {
    "seq": 31,
    "uuid": "3c6ef3de-e809-41c5-9869-bf2eebfda2f6"
  },
  {
    "seq": 32,
    "uuid": "2592620e-0ab4-4a72-b3db-9df740c98d12"
  },
  {
    "seq": 33,
    "uuid": "95a00429-71b5-4f2f-a3ad-3be18fd0412c"
  },
  {
    "seq": 34,
    "uuid": "5ffb2a51-19fe-46c0-b003-ecdd16b9e6ee"
  },
  {
    "seq": 35,
    "uuid": "00c0c93f-c5f0-4ab6-86d9-abdcaaf2ad59"
  },
  {
    "seq": 36,
    "uuid": "5a3b1757-b5fa-4b08-9c34-3a2b7add50dc"
  },
  {
    "seq": 37,
    "uuid": "18b62f47-4b28-4fc4-9521-a10c67d8a33b"
  },
  {
    "seq": 38,
    "uuid": "53f50a15-011b-455b-9a12-110bd1d0d70b"
  },
  {
    "seq": 39,
    "uuid": "05724d5a-8e69-4af1-b29f-a24bef60d3dd"
  },
  {
    "seq": 40,
    "uuid": "686b70f0-74c4-4b3a-96e5-cc905e6fd09a"
  },
  {
    "seq": 41,
    "uuid": "11d32f73-7576-401b-a11a-7a30568d172b"
  },
  {
    "seq": 42,
    "uuid": "72fc0357-44a8-4efe-8b3e-99f34ab6088b"
  },
  {
    "seq": 43,
    "uuid": "310357eb-fedc-4f05-9ca1-842e5ab12a5b"
  },
  {
    "seq": 44,
    "uuid": "29feafab-764c-4e40-9a71-ddf0b7e475d3"
  },
  {
    "seq": 45,
    "uuid": "e6c19bd8-05c8-44e7-a7fe-d30ca3615a2e"
  },
  {
    "seq": 46,
    "uuid": "749f4129-c8c0-47d5-9a1f-f0ac6344d9f9"
  },
  {
    "seq": 47,
    "uuid": "15b65b3c-6b89-463b-a3ad-fa141ff02cb3"
  },
  {
    "seq": 48,
    "uuid": "9d927073-f5f9-4e55-81a3-f222bd5e2481"
  },
  {
    "seq": 49,
    "uuid": "fc85e020-c7d5-4018-bcf9-c9bfd1b378b7"
  },
  {
    "seq": 50,
    "uuid": "4218bf02-e9f6-4302-93fc-bb9692f91578"
  },
  {
    "seq": 51,
    "uuid": "3cb4f0c0-d6e1-4df3-870a-2a4a3169dbb2"
  },
  {
    "seq": 52,
    "uuid": "ed7a9442-b2db-41ee-b23f-b2ce5493705b"
  },
  {
    "seq": 53,
    "uuid": "fc1db737-1945-414c-ac0d-e93c17856b55"
  },
  {
    "seq": 54,
    "uuid": "6a77ec24-68c9-4369-84a1-749ca01b8d95"
  },
  {
    "seq": 55,
    "uuid": "cd0e581c-6bf6-41b1-86ed-91874bd1024e"
  },
  {
    "seq": 56,
    "uuid": "950fdae0-da57-4a86-bc1c-2df878cc991d"
  },
  {
    "seq": 57,
    "uuid": "a21d1571-fd9c-4c28-b797-17018d77187b"
  },
  {
    "seq": 58,
    "uuid": "24d7e254-99f2-4df1-8c70-acc9fc2b2ed4"
  },
  {
    "seq": 59,
    "uuid": "85f575f1-9424-4c3c-a4c2-248a46b2b5e6"
  },
  {
    "seq": 60,
    "uuid": "0d890c86-4c94-47c8-af02-34433e9ad91d"
  },
  {
    "seq": 61,
    "uuid": "fbbdd09a-c770-4a88-96d2-278ffd30d185"
  },
  {
    "seq": 62,
    "uuid": "d5d664de-fc00-4504-8392-c3a81fece6bf"
  },
  {
    "seq": 63,
    "uuid": "c484d7de-affc-4c46-858b-c27a29fafb3d"
  },
  {
    "seq": 64,
    "uuid": "d85aaaa7-50f6-442e-ad4b-f313574bac35"
  },
  {
    "seq": 65,
    "uuid": "aa9001d5-d91a-4435-8d0f-4deb70103fa8"
  },
  {
    "seq": 66,
    "uuid": "e01862a1-5803-4e22-96e9-c89ef3323374"
  },
  {
    "seq": 67,
    "uuid": "d63eb65a-34bf-4b6f-9ef4-07f2bfe59a40"
  },
  {
    "seq": 68,
    "uuid": "67865f53-ee68-4860-9e6d-80c53a7705c6"
  },
  {
    "seq": 69,
    "uuid": "d7a049cc-6949-40b7-9837-11fe3d433708"
  },
  {
    "seq": 70,
    "uuid": "4872811e-05b9-4068-bce4-699ba7ea956c"
  },
  {
    "seq": 71,
    "uuid": "aad08f7b-9fb3-4f1e-aad1-cac5bba11267"
  },
  {
    "seq": 72,
    "uuid": "5398ad77-3d0b-4807-909b-032cd974e1d3"
  },
  {
    "seq": 73,
    "uuid": "afe7c27a-2fd2-48d2-b1fb-c6ffcdf7cd23"
  },
  {
    "seq": 74,
    "uuid": "eade4611-287d-403b-8b11-9d4660bc154e"
  },
  {
    "seq": 75,
    "uuid": "fcd64e2e-bbad-4d80-8b84-7f48da115a11"
  },
  {
    "seq": 76,
    "uuid": "132924d2-18fe-4010-bcfd-36d8863608cd"
  },
  {
    "seq": 77,
    "uuid": "45b26882-fa5d-4ceb-96df-58f7f682cdd9"
  },
  {
    "seq": 78,
    "uuid": "0ac9787f-a01a-49ed-b75a-fa4af82608ca"
  },
  {
    "seq": 79,
    "uuid": "cedf3734-c9d3-48b8-9a2e-083dd11cf3f9"
  },
  {
    "seq": 80,
    "uuid": "c95435bc-eacc-4a14-ab7a-54387eff2695"
  },
  {
    "seq": 81,
    "uuid": "52ef994b-fe6a-49a0-a180-b0fa83737e6e"
  },
  {
    "seq": 82,
    "uuid": "0ef95222-b997-4e01-bc06-056704f90773"
  },
  {
    "seq": 83,
    "uuid": "37da1b23-0801-4c4e-90f2-4c8fa405f685"
  },
  {
    "seq": 84,
    "uuid": "a1d70ed2-c735-417c-b314-83083df7e4b9"
  },
  {
    "seq": 85,
    "uuid": "4517f8f1-e128-4219-b8d3-5c5733284274"
  },
  {
    "seq": 86,
    "uuid": "79c2912a-638e-4c1c-a7e3-80d6cf716a81"
  },
  {
    "seq": 87,
    "uuid": "17eaf875-3d30-4ec3-a016-966415c635c7"
  },
  {
    "seq": 88,
    "uuid": "0b5e8418-8572-41dc-ba98-b2c968203efc"
  },
  {
    "seq": 89,
    "uuid": "58a929f3-0816-4e9d-9d21-0143e11cedea"
  },
  {
    "seq": 90,
    "uuid": "aedaecd4-5fce-46a8-b8e4-637bbe10b007"
  },
  {
    "seq": 91,
    "uuid": "d7440620-c863-4892-83cf-ea0caa429657"
  },
  {
    "seq": 92,
    "uuid": "3a835504-4f67-431a-bbbf-a0693c233a8a"
  },
  {
    "seq": 93,
    "uuid": "b77343e8-f45f-4d59-89ac-233ffcc3e06b"
  },
  {
    "seq": 94,
    "uuid": "f9471955-f9a9-41f3-9a2b-b7834dba0e55"
  },
  {
    "seq": 95,
    "uuid": "0336cf96-5835-4a19-9ba3-17ea64ae1441"
  },
  {
    "seq": 96,
    "uuid": "432ba020-1ac9-46de-a984-7a504143f434"
  },
  {
    "seq": 97,
    "uuid": "ba992c78-a2ee-48b8-9cdc-2ae4eb995491"
  },
  {
    "seq": 98,
    "uuid": "d8a11c11-e61d-432d-988a-6ef16455fd90"
  },
  {
    "seq": 99,
    "uuid": "883308d1-fbb5-4382-92d8-a66cba673d7d"
  }
]